# Blender v2.92.0 OBJ File: 'bombard.blend'
# www.blender.org
mtllib Sphere.mtl
o Sphere
v 0.000000 0.980785 -0.195090
v 0.000000 0.923880 -0.382683
v 0.000000 0.831470 -0.555570
v 0.000000 0.707107 -0.707107
v 0.000000 0.555570 -0.831470
v 0.000000 0.382683 -0.923880
v 0.000000 0.195090 -0.980785
v 0.000000 0.000000 -1.000000
v 0.000000 -0.195090 -0.980785
v 0.000000 -0.831470 -0.555570
v 0.038060 0.980785 -0.191342
v 0.074658 0.923880 -0.375330
v 0.108386 0.831470 -0.544895
v 0.137950 0.707107 -0.693520
v 0.162212 0.555570 -0.815493
v 0.180240 0.382683 -0.906127
v 0.191342 0.195090 -0.961940
v 0.195090 0.000000 -0.980785
v 0.191342 -0.195090 -0.961940
v 0.180240 -0.382683 -0.906127
v 0.162212 -0.555570 -0.815493
v 0.137950 -0.707107 -0.693520
v 0.108386 -0.831470 -0.544895
v 0.074658 -0.923880 -0.375330
v 0.038060 -0.980785 -0.191341
v 0.074658 0.980785 -0.180240
v 0.146447 0.923880 -0.353553
v 0.212608 0.831470 -0.513280
v 0.270598 0.707107 -0.653281
v 0.318190 0.555570 -0.768178
v 0.353553 0.382683 -0.853553
v 0.375330 0.195090 -0.906127
v 0.382684 0.000000 -0.923879
v 0.375330 -0.195090 -0.906127
v 0.353554 -0.382683 -0.853553
v 0.318190 -0.555570 -0.768178
v 0.270598 -0.707107 -0.653281
v 0.212608 -0.831470 -0.513280
v 0.146447 -0.923880 -0.353553
v 0.074658 -0.980785 -0.180240
v 0.108387 0.980785 -0.162212
v 0.212608 0.923880 -0.318190
v 0.308658 0.831470 -0.461940
v 0.392848 0.707107 -0.587938
v 0.461940 0.555570 -0.691342
v 0.513280 0.382683 -0.768178
v 0.544895 0.195090 -0.815493
v 0.555570 0.000000 -0.831469
v 0.544895 -0.195090 -0.815493
v 0.513280 -0.382683 -0.768178
v 0.461940 -0.555570 -0.691342
v 0.392848 -0.707107 -0.587938
v 0.308658 -0.831470 -0.461940
v 0.212608 -0.923880 -0.318189
v 0.108386 -0.980785 -0.162211
v 0.137950 0.980785 -0.137950
v 0.270598 0.923880 -0.270598
v 0.392848 0.831470 -0.392847
v 0.500000 0.707107 -0.500000
v 0.587938 0.555570 -0.587938
v 0.653282 0.382683 -0.653281
v 0.693520 0.195090 -0.693520
v 0.707107 0.000000 -0.707107
v 0.693520 -0.195090 -0.693520
v 0.653282 -0.382683 -0.653281
v 0.587938 -0.555570 -0.587938
v 0.500000 -0.707107 -0.500000
v 0.392848 -0.831470 -0.392847
v 0.270598 -0.923880 -0.270598
v 0.137950 -0.980785 -0.137949
v 0.162212 0.980785 -0.108386
v 0.318190 0.923880 -0.212607
v 0.461940 0.831470 -0.308658
v 0.587938 0.707107 -0.392847
v 0.691342 0.555570 -0.461940
v 0.768178 0.382683 -0.513280
v 0.815493 0.195090 -0.544895
v 0.831470 0.000000 -0.555570
v 0.815493 -0.195090 -0.544895
v 0.768178 -0.382683 -0.513280
v 0.691342 -0.555570 -0.461940
v 0.587938 -0.707107 -0.392847
v 0.461940 -0.831470 -0.308658
v 0.318190 -0.923880 -0.212607
v 0.162212 -0.980785 -0.108386
v 0.180240 0.980785 -0.074658
v 0.353554 0.923880 -0.146446
v 0.513280 0.831470 -0.212607
v 0.653282 0.707107 -0.270598
v 0.768178 0.555570 -0.318189
v 0.853554 0.382683 -0.353553
v 0.906128 0.195090 -0.375330
v 0.923880 0.000000 -0.382683
v 0.906128 -0.195090 -0.375330
v 0.853554 -0.382683 -0.353553
v 0.768178 -0.555570 -0.318189
v 0.653282 -0.707107 -0.270598
v 0.513280 -0.831470 -0.212607
v 0.353554 -0.923880 -0.146446
v 0.180240 -0.980785 -0.074658
v 0.191342 0.980785 -0.038060
v 0.375331 0.923880 -0.074658
v 0.544895 0.831470 -0.108386
v 0.693520 0.707107 -0.137949
v 0.815493 0.555570 -0.162211
v 0.906128 0.382683 -0.180240
v 0.961940 0.195090 -0.191341
v 0.980785 0.000000 -0.195090
v 0.961940 -0.195090 -0.191341
v 0.906128 -0.382683 -0.180240
v 0.815493 -0.555570 -0.162211
v 0.693520 -0.707107 -0.137949
v 0.544895 -0.831470 -0.108386
v 0.375330 -0.923880 -0.074658
v 0.191342 -0.980785 -0.038060
v 0.195091 0.980785 0.000000
v 0.382684 0.923880 0.000000
v 0.555570 0.831470 0.000000
v 0.707107 0.707107 0.000000
v 0.831470 0.555570 0.000000
v 0.923880 0.382683 0.000000
v 0.980785 0.195090 0.000000
v 1.000000 0.000000 0.000000
v 0.980785 -0.195090 0.000000
v 0.923880 -0.382683 0.000000
v 0.831470 -0.555570 0.000000
v 0.707107 -0.707107 0.000000
v 0.555570 -0.831470 0.000000
v 0.382684 -0.923880 0.000000
v 0.195090 -0.980785 0.000000
v 0.191342 0.980785 0.038061
v 0.375331 0.923880 0.074658
v 0.544895 0.831470 0.108387
v 0.693520 0.707107 0.137950
v 0.815493 0.555570 0.162212
v 0.906128 0.382683 0.180240
v 0.961940 0.195090 0.191342
v 0.980785 0.000000 0.195091
v 0.961940 -0.195090 0.191342
v 0.906128 -0.382683 0.180240
v 0.815493 -0.555570 0.162212
v 0.693520 -0.707107 0.137950
v 0.544895 -0.831470 0.108387
v 0.375330 -0.923880 0.074658
v 0.191342 -0.980785 0.038061
v 0.180240 0.980785 0.074658
v 0.353554 0.923880 0.146447
v 0.513280 0.831470 0.212608
v 0.653282 0.707107 0.270598
v 0.768178 0.555570 0.318190
v 0.853554 0.382683 0.353554
v 0.906127 0.195090 0.375331
v 0.923880 0.000000 0.382684
v 0.906127 -0.195090 0.375331
v 0.853554 -0.382683 0.353554
v 0.768178 -0.555570 0.318190
v 0.653282 -0.707107 0.270598
v 0.513280 -0.831470 0.212608
v 0.353553 -0.923880 0.146447
v 0.180240 -0.980785 0.074658
v 0.162212 0.980785 0.108387
v 0.318190 0.923880 0.212608
v 0.461940 0.831470 0.308659
v 0.587938 0.707107 0.392848
v 0.691342 0.555570 0.461940
v 0.768178 0.382683 0.513280
v 0.815493 0.195090 0.544895
v 0.831470 0.000000 0.555571
v 0.815493 -0.195090 0.544895
v 0.768178 -0.382683 0.513280
v 0.691342 -0.555570 0.461940
v 0.587938 -0.707107 0.392848
v 0.461940 -0.831470 0.308659
v 0.318190 -0.923880 0.212608
v 0.162212 -0.980785 0.108387
v 0.137950 0.980785 0.137950
v 0.270598 0.923880 0.270599
v 0.392848 0.831470 0.392848
v 0.500000 0.707107 0.500000
v 0.587938 0.555570 0.587938
v 0.653282 0.382683 0.653282
v 0.693520 0.195090 0.693520
v 0.707107 0.000000 0.707107
v 0.693520 -0.195090 0.693520
v 0.653282 -0.382683 0.653282
v 0.587938 -0.555570 0.587938
v 0.500000 -0.707107 0.500000
v 0.392848 -0.831470 0.392848
v 0.270598 -0.923880 0.270598
v 0.137950 -0.980785 0.137950
v 0.108386 0.980785 0.162212
v 0.212608 0.923880 0.318190
v 0.308658 0.831470 0.461940
v 0.392848 0.707107 0.587938
v 0.461940 0.555570 0.691342
v 0.513280 0.382683 0.768178
v 0.544895 0.195090 0.815493
v 0.555570 0.000000 0.831470
v 0.544895 -0.195090 0.815493
v 0.513280 -0.382683 0.768178
v 0.461940 -0.555570 0.691342
v 0.392848 -0.707107 0.587938
v 0.308658 -0.831470 0.461940
v 0.212608 -0.923880 0.318190
v 0.108386 -0.980785 0.162212
v 0.000000 -1.000000 0.000000
v 0.074658 0.980785 0.180240
v 0.146447 0.923880 0.353554
v 0.212608 0.831470 0.513280
v 0.270598 0.707107 0.653282
v 0.318190 0.555570 0.768178
v 0.353553 0.382683 0.853554
v 0.375330 0.195090 0.906128
v 0.382683 0.000000 0.923880
v 0.375330 -0.195090 0.906128
v 0.353553 -0.382683 0.853554
v 0.318190 -0.555570 0.768178
v 0.270598 -0.707107 0.653282
v 0.212608 -0.831470 0.513280
v 0.146447 -0.923880 0.353554
v 0.074658 -0.980785 0.180240
v 0.038060 0.980785 0.191342
v 0.074658 0.923880 0.375331
v 0.108386 0.831470 0.544896
v 0.137950 0.707107 0.693520
v 0.162212 0.555570 0.815493
v 0.180240 0.382683 0.906128
v 0.191342 0.195090 0.961940
v 0.195090 0.000000 0.980786
v 0.191342 -0.195090 0.961940
v 0.180240 -0.382683 0.906128
v 0.162212 -0.555570 0.815493
v 0.137950 -0.707107 0.693520
v 0.108386 -0.831470 0.544895
v 0.074658 -0.923880 0.375331
v 0.038060 -0.980785 0.191342
v -0.000000 0.980785 0.195091
v 0.000000 0.923880 0.382684
v 0.000000 0.831470 0.555571
v -0.000000 0.707107 0.707107
v -0.000000 0.555570 0.831470
v 0.000000 0.382683 0.923880
v -0.000000 0.195090 0.980785
v -0.000000 0.000000 1.000000
v -0.000000 -0.195090 0.980785
v 0.000000 -0.382683 0.923880
v -0.000000 -0.555570 0.831470
v -0.000000 -0.707107 0.707107
v -0.000000 -0.831470 0.555570
v 0.000000 -0.923880 0.382684
v 0.000000 -0.980785 0.195091
v -0.038060 0.980785 0.191342
v -0.074658 0.923880 0.375331
v -0.108386 0.831470 0.544896
v -0.137950 0.707107 0.693520
v -0.162212 0.555570 0.815493
v -0.180240 0.382683 0.906128
v -0.191342 0.195090 0.961940
v -0.195090 0.000000 0.980786
v -0.191342 -0.195090 0.961940
v -0.180240 -0.382683 0.906128
v -0.162212 -0.555570 0.815493
v -0.137950 -0.707107 0.693520
v -0.108386 -0.831470 0.544895
v -0.074658 -0.923880 0.375331
v -0.038060 -0.980785 0.191342
v -0.074658 0.980785 0.180240
v -0.146447 0.923880 0.353554
v -0.212608 0.831470 0.513280
v -0.270598 0.707107 0.653282
v -0.318190 0.555570 0.768178
v -0.353553 0.382683 0.853554
v -0.375330 0.195090 0.906127
v -0.382684 0.000000 0.923880
v -0.375330 -0.195090 0.906127
v -0.353553 -0.382683 0.853554
v -0.318190 -0.555570 0.768178
v -0.270598 -0.707107 0.653282
v -0.212608 -0.831470 0.513280
v -0.146447 -0.923880 0.353554
v -0.074658 -0.980785 0.180240
v -0.108386 0.980785 0.162212
v -0.212608 0.923880 0.318190
v -0.308658 0.831470 0.461940
v -0.392847 0.707107 0.587938
v -0.461940 0.555570 0.691342
v -0.513280 0.382683 0.768178
v -0.544895 0.195090 0.815493
v -0.555570 0.000000 0.831470
v -0.544895 -0.195090 0.815493
v -0.513280 -0.382683 0.768178
v -0.461940 -0.555570 0.691342
v -0.392847 -0.707107 0.587938
v -0.308658 -0.831470 0.461940
v -0.212607 -0.923880 0.318190
v -0.108386 -0.980785 0.162212
v -0.000000 1.000000 0.000001
v -0.137950 0.980785 0.137950
v -0.270598 0.923880 0.270598
v -0.392848 0.831470 0.392848
v -0.500000 0.707107 0.500000
v -0.587938 0.555570 0.587938
v -0.653281 0.382683 0.653282
v -0.693520 0.195090 0.693520
v -0.707107 0.000000 0.707107
v -0.693520 -0.195090 0.693520
v -0.653281 -0.382683 0.653282
v -0.587938 -0.555570 0.587938
v -0.500000 -0.707107 0.500000
v -0.392847 -0.831470 0.392848
v -0.270598 -0.923880 0.270598
v -0.137950 -0.980785 0.137950
v -0.162212 0.980785 0.108387
v -0.318190 0.923880 0.212608
v -0.461940 0.831470 0.308659
v -0.587938 0.707107 0.392848
v -0.691342 0.555570 0.461940
v -0.768178 0.382683 0.513280
v -0.815493 0.195090 0.544895
v -0.831470 0.000000 0.555570
v -0.815493 -0.195090 0.544895
v -0.768178 -0.382683 0.513280
v -0.691342 -0.555570 0.461940
v -0.587938 -0.707107 0.392848
v -0.461940 -0.831470 0.308658
v -0.318190 -0.923880 0.212608
v -0.162212 -0.980785 0.108387
v -0.180240 0.980785 0.074658
v -0.353553 0.923880 0.146447
v -0.513280 0.831470 0.212608
v -0.653281 0.707107 0.270598
v -0.768177 0.555570 0.318190
v -0.853553 0.382683 0.353554
v -0.906127 0.195090 0.375330
v -0.923880 0.000000 0.382684
v -0.906127 -0.195090 0.375330
v -0.853553 -0.382683 0.353554
v -0.768177 -0.555570 0.318190
v -0.653281 -0.707107 0.270598
v -0.513280 -0.831470 0.212608
v -0.353553 -0.923880 0.146447
v -0.180240 -0.980785 0.074658
v -0.191342 0.980785 0.038061
v -0.375330 0.923880 0.074658
v -0.544895 0.831470 0.108387
v -0.693520 0.707107 0.137950
v -0.815493 0.555570 0.162212
v -0.906127 0.382683 0.180240
v -0.961939 0.195090 0.191342
v -0.980785 0.000000 0.195090
v -0.961939 -0.195090 0.191342
v -0.906127 -0.382683 0.180240
v -0.815493 -0.555570 0.162212
v -0.693520 -0.707107 0.137950
v -0.544895 -0.831470 0.108387
v -0.375330 -0.923880 0.074658
v -0.191342 -0.980785 0.038061
v -0.195090 0.980785 0.000000
v -0.382683 0.923880 0.000000
v -0.555570 0.831470 0.000000
v -0.707107 0.707107 0.000000
v -0.831469 0.555570 0.000000
v -0.923879 0.382683 0.000000
v -0.980785 0.195090 0.000000
v -1.000000 0.000000 0.000000
v -0.980785 -0.195090 0.000000
v -0.923879 -0.382683 0.000000
v -0.831469 -0.555570 0.000000
v -0.707107 -0.707107 0.000000
v -0.555570 -0.831470 0.000000
v -0.382683 -0.923880 0.000000
v -0.195090 -0.980785 0.000000
v -0.191342 0.980785 -0.038060
v -0.375330 0.923880 -0.074658
v -0.544895 0.831470 -0.108386
v -0.693520 0.707107 -0.137949
v -0.815493 0.555570 -0.162211
v -0.906127 0.382683 -0.180240
v -0.961939 0.195090 -0.191342
v -0.980785 0.000000 -0.195090
v -0.961939 -0.195090 -0.191342
v -0.906127 -0.382683 -0.180240
v -0.815493 -0.555570 -0.162211
v -0.693520 -0.707107 -0.137949
v -0.544895 -0.831470 -0.108386
v -0.375330 -0.923880 -0.074658
v -0.191342 -0.980785 -0.038060
v -0.180240 0.980785 -0.074658
v -0.353553 0.923880 -0.146446
v -0.513280 0.831470 -0.212607
v -0.653281 0.707107 -0.270598
v -0.768177 0.555570 -0.318189
v -0.853553 0.382683 -0.353553
v -0.906127 0.195090 -0.375330
v -0.923879 0.000000 -0.382683
v -0.906127 -0.195090 -0.375330
v -0.853553 -0.382683 -0.353553
v -0.768177 -0.555570 -0.318189
v -0.653281 -0.707107 -0.270598
v -0.513280 -0.831470 -0.212607
v -0.353553 -0.923880 -0.146446
v -0.180240 -0.980785 -0.074657
v -0.162212 0.980785 -0.108386
v -0.318190 0.923880 -0.212607
v -0.461940 0.831470 -0.308658
v -0.587938 0.707107 -0.392847
v -0.691341 0.555570 -0.461939
v -0.768178 0.382683 -0.513280
v -0.815493 0.195090 -0.544895
v -0.831469 0.000000 -0.555570
v -0.815493 -0.195090 -0.544895
v -0.768178 -0.382683 -0.513280
v -0.691341 -0.555570 -0.461939
v -0.587938 -0.707107 -0.392847
v -0.461940 -0.831470 -0.308658
v -0.318189 -0.923880 -0.212607
v -0.162212 -0.980785 -0.108386
v -0.137950 0.980785 -0.137949
v -0.270598 0.923880 -0.270598
v -0.392847 0.831470 -0.392847
v -0.500000 0.707107 -0.500000
v -0.587937 0.555570 -0.587937
v -0.653281 0.382683 -0.653281
v -0.693519 0.195090 -0.693519
v -0.707106 0.000000 -0.707106
v -0.693519 -0.195090 -0.693519
v -0.653281 -0.382683 -0.653281
v -0.587937 -0.555570 -0.587937
v -0.500000 -0.707107 -0.500000
v -0.392847 -0.831470 -0.392847
v -0.270598 -0.923880 -0.270598
v -0.137950 -0.980785 -0.137949
v -0.108386 0.980785 -0.162211
v -0.212607 0.923880 -0.318189
v -0.308658 0.831470 -0.461939
v -0.392847 0.707107 -0.587937
v -0.461939 0.555570 -0.691341
v -0.513280 0.382683 -0.768177
v -0.544895 0.195090 -0.815492
v -0.555570 0.000000 -0.831469
v -0.544895 -0.195090 -0.815492
v -0.513280 -0.382683 -0.768177
v -0.461939 -0.555570 -0.691341
v -0.392847 -0.707107 -0.587937
v -0.308658 -0.831470 -0.461939
v -0.212607 -0.923880 -0.318189
v -0.108386 -0.980785 -0.162211
v -0.074658 0.980785 -0.180240
v -0.146447 0.923880 -0.353553
v -0.212607 0.831470 -0.513280
v -0.270598 0.707107 -0.653281
v -0.318189 0.555570 -0.768177
v -0.353553 0.382683 -0.853553
v -0.375330 0.195090 -0.906127
v -0.382683 0.000000 -0.923879
v -0.375330 -0.195090 -0.906127
v -0.353553 -0.382683 -0.853553
v -0.318189 -0.555570 -0.768177
v -0.270598 -0.707107 -0.653281
v -0.212607 -0.831470 -0.513279
v -0.146446 -0.923880 -0.353553
v -0.074658 -0.980785 -0.180240
v -0.038060 0.980785 -0.191342
v -0.074658 0.923880 -0.375330
v -0.108386 0.831470 -0.544895
v -0.137950 0.707107 -0.693520
v -0.162211 0.555570 -0.815492
v -0.180240 0.382683 -0.906127
v -0.191341 0.195090 -0.961939
v -0.195090 0.000000 -0.980785
v -0.191341 -0.195090 -0.961939
v -0.180240 -0.382683 -0.906127
v -0.162211 -0.555570 -0.815492
v -0.137950 -0.707107 -0.693520
v -0.108386 -0.831470 -0.544895
v -0.074658 -0.923880 -0.375330
v -0.038060 -0.980785 -0.191341
v 0.000000 -0.382683 -0.923879
v 0.000000 -0.555570 -0.831469
v 0.000000 -0.707107 -0.707106
v 0.000000 -0.923880 -0.382683
v 0.000000 -0.980785 -0.195090
vt 0.750000 0.250000
vt 0.750000 0.312500
vt 0.718750 0.312500
vt 0.718750 0.250000
vt 0.750000 0.687500
vt 0.750000 0.750000
vt 0.718750 0.750000
vt 0.718750 0.687500
vt 0.750000 0.187500
vt 0.718750 0.187500
vt 0.750000 0.625000
vt 0.718750 0.625000
vt 0.750000 0.125000
vt 0.718750 0.125000
vt 0.750000 0.562500
vt 0.718750 0.562500
vt 0.750000 0.062500
vt 0.718750 0.062500
vt 0.750000 0.500000
vt 0.718750 0.500000
vt 0.750000 0.937500
vt 0.734375 1.000000
vt 0.718750 0.937500
vt 0.734375 0.000000
vt 0.750000 0.437500
vt 0.718750 0.437500
vt 0.750000 0.875000
vt 0.718750 0.875000
vt 0.750000 0.375000
vt 0.718750 0.375000
vt 0.750000 0.812500
vt 0.718750 0.812500
vt 0.687500 0.875000
vt 0.687500 0.812500
vt 0.687500 0.375000
vt 0.687500 0.312500
vt 0.687500 0.750000
vt 0.687500 0.250000
vt 0.687500 0.687500
vt 0.687500 0.187500
vt 0.687500 0.625000
vt 0.687500 0.125000
vt 0.687500 0.562500
vt 0.687500 0.062500
vt 0.687500 0.500000
vt 0.703125 1.000000
vt 0.687500 0.937500
vt 0.703125 0.000000
vt 0.687500 0.437500
vt 0.656250 0.625000
vt 0.656250 0.562500
vt 0.656250 0.125000
vt 0.656250 0.062500
vt 0.656250 0.500000
vt 0.671875 1.000000
vt 0.656250 0.937500
vt 0.671875 0.000000
vt 0.656250 0.437500
vt 0.656250 0.875000
vt 0.656250 0.375000
vt 0.656250 0.812500
vt 0.656250 0.312500
vt 0.656250 0.750000
vt 0.656250 0.250000
vt 0.656250 0.687500
vt 0.656250 0.187500
vt 0.625000 0.375000
vt 0.625000 0.312500
vt 0.625000 0.812500
vt 0.625000 0.750000
vt 0.625000 0.250000
vt 0.625000 0.687500
vt 0.625000 0.187500
vt 0.625000 0.625000
vt 0.625000 0.125000
vt 0.625000 0.562500
vt 0.625000 0.062500
vt 0.625000 0.500000
vt 0.640625 1.000000
vt 0.625000 0.937500
vt 0.640625 0.000000
vt 0.625000 0.437500
vt 0.625000 0.875000
vt 0.593750 0.125000
vt 0.593750 0.062500
vt 0.593750 0.562500
vt 0.593750 0.500000
vt 0.609375 1.000000
vt 0.593750 0.937500
vt 0.609375 0.000000
vt 0.593750 0.437500
vt 0.593750 0.875000
vt 0.593750 0.375000
vt 0.593750 0.812500
vt 0.593750 0.312500
vt 0.593750 0.750000
vt 0.593750 0.250000
vt 0.593750 0.687500
vt 0.593750 0.187500
vt 0.593750 0.625000
vt 0.562500 0.312500
vt 0.562500 0.250000
vt 0.562500 0.750000
vt 0.562500 0.687500
vt 0.562500 0.187500
vt 0.562500 0.625000
vt 0.562500 0.125000
vt 0.562500 0.562500
vt 0.562500 0.062500
vt 0.562500 0.500000
vt 0.578125 1.000000
vt 0.562500 0.937500
vt 0.578125 0.000000
vt 0.562500 0.437500
vt 0.562500 0.875000
vt 0.562500 0.375000
vt 0.562500 0.812500
vt 0.546875 1.000000
vt 0.531250 0.937500
vt 0.546875 0.000000
vt 0.531250 0.062500
vt 0.531250 0.500000
vt 0.531250 0.437500
vt 0.531250 0.875000
vt 0.531250 0.375000
vt 0.531250 0.812500
vt 0.531250 0.312500
vt 0.531250 0.750000
vt 0.531250 0.250000
vt 0.531250 0.687500
vt 0.531250 0.187500
vt 0.531250 0.625000
vt 0.531250 0.125000
vt 0.531250 0.562500
vt 0.500000 0.750000
vt 0.500000 0.687500
vt 0.500000 0.250000
vt 0.500000 0.187500
vt 0.500000 0.625000
vt 0.500000 0.125000
vt 0.500000 0.562500
vt 0.500000 0.062500
vt 0.500000 0.500000
vt 0.515625 1.000000
vt 0.500000 0.937500
vt 0.515625 0.000000
vt 0.500000 0.437500
vt 0.500000 0.875000
vt 0.500000 0.375000
vt 0.500000 0.812500
vt 0.500000 0.312500
vt 0.468750 0.500000
vt 0.468750 0.437500
vt 0.468750 0.937500
vt 0.468750 0.875000
vt 0.468750 0.375000
vt 0.468750 0.812500
vt 0.468750 0.312500
vt 0.468750 0.750000
vt 0.468750 0.250000
vt 0.468750 0.687500
vt 0.468750 0.187500
vt 0.468750 0.625000
vt 0.468750 0.125000
vt 0.468750 0.562500
vt 0.468750 0.062500
vt 0.484374 1.000000
vt 0.484375 0.000000
vt 0.437500 0.250000
vt 0.437500 0.187500
vt 0.437500 0.687500
vt 0.437500 0.625000
vt 0.437500 0.125000
vt 0.437500 0.562500
vt 0.437500 0.062500
vt 0.437500 0.500000
vt 0.453124 1.000000
vt 0.437500 0.937500
vt 0.453125 0.000000
vt 0.437500 0.437500
vt 0.437500 0.875000
vt 0.437500 0.375000
vt 0.437500 0.812500
vt 0.437500 0.312500
vt 0.437500 0.750000
vt 0.406250 0.937500
vt 0.406250 0.875000
vt 0.406250 0.437500
vt 0.406250 0.375000
vt 0.406250 0.812500
vt 0.406250 0.312500
vt 0.406250 0.750000
vt 0.406250 0.250000
vt 0.406250 0.687500
vt 0.406250 0.187500
vt 0.406250 0.625000
vt 0.406250 0.125000
vt 0.406250 0.562500
vt 0.406250 0.062500
vt 0.406250 0.500000
vt 0.421874 1.000000
vt 0.421875 0.000000
vt 0.375000 0.687500
vt 0.375000 0.625000
vt 0.375000 0.187500
vt 0.375000 0.125000
vt 0.375000 0.562500
vt 0.375000 0.062500
vt 0.375000 0.500000
vt 0.390625 1.000000
vt 0.375000 0.937500
vt 0.390625 0.000000
vt 0.375000 0.437500
vt 0.375000 0.875000
vt 0.375000 0.375000
vt 0.375000 0.812500
vt 0.375000 0.312500
vt 0.375000 0.750000
vt 0.375000 0.250000
vt 0.343750 0.437500
vt 0.343750 0.375000
vt 0.343750 0.875000
vt 0.343750 0.812500
vt 0.343750 0.312500
vt 0.343750 0.750000
vt 0.343750 0.250000
vt 0.343750 0.687500
vt 0.343750 0.187500
vt 0.343750 0.625000
vt 0.343750 0.125000
vt 0.343750 0.562500
vt 0.343750 0.062500
vt 0.343750 0.500000
vt 0.359375 1.000000
vt 0.343750 0.937500
vt 0.359375 0.000000
vt 0.312500 0.187500
vt 0.312500 0.125000
vt 0.312500 0.625000
vt 0.312500 0.562500
vt 0.312500 0.062500
vt 0.312500 0.500000
vt 0.328125 1.000000
vt 0.312500 0.937500
vt 0.328125 0.000000
vt 0.312500 0.437500
vt 0.312500 0.875000
vt 0.312500 0.375000
vt 0.312500 0.812500
vt 0.312500 0.312500
vt 0.312500 0.750000
vt 0.312500 0.250000
vt 0.312500 0.687500
vt 0.281250 0.375000
vt 0.281250 0.312500
vt 0.281250 0.812500
vt 0.281250 0.750000
vt 0.281250 0.250000
vt 0.281250 0.687500
vt 0.281250 0.187500
vt 0.281250 0.625000
vt 0.281250 0.125000
vt 0.281250 0.562500
vt 0.281250 0.062500
vt 0.281250 0.500000
vt 0.296875 1.000000
vt 0.281250 0.937500
vt 0.296875 0.000000
vt 0.281250 0.437500
vt 0.281250 0.875000
vt 0.250000 0.125000
vt 0.250000 0.062500
vt 0.250000 0.562500
vt 0.250000 0.500000
vt 0.265625 1.000000
vt 0.250000 0.937500
vt 0.265625 0.000000
vt 0.250000 0.437500
vt 0.250000 0.875000
vt 0.250000 0.375000
vt 0.250000 0.812500
vt 0.250000 0.312500
vt 0.250000 0.750000
vt 0.250000 0.250000
vt 0.250000 0.687500
vt 0.250000 0.187500
vt 0.250000 0.625000
vt 0.218750 0.812500
vt 0.218750 0.750000
vt 0.218750 0.312500
vt 0.218750 0.250000
vt 0.218750 0.687500
vt 0.218750 0.187500
vt 0.218750 0.625000
vt 0.218750 0.125000
vt 0.218750 0.562500
vt 0.218750 0.062500
vt 0.218750 0.500000
vt 0.234375 1.000000
vt 0.218750 0.937500
vt 0.234375 0.000000
vt 0.218750 0.437500
vt 0.218750 0.875000
vt 0.218750 0.375000
vt 0.187500 0.562500
vt 0.187500 0.500000
vt 0.203125 1.000000
vt 0.187500 0.937500
vt 0.203125 0.000000
vt 0.187500 0.062500
vt 0.187500 0.437500
vt 0.187500 0.875000
vt 0.187500 0.375000
vt 0.187500 0.812500
vt 0.187500 0.312500
vt 0.187500 0.750000
vt 0.187500 0.250000
vt 0.187500 0.687500
vt 0.187500 0.187500
vt 0.187500 0.625000
vt 0.187500 0.125000
vt 0.156250 0.312500
vt 0.156250 0.250000
vt 0.156250 0.750000
vt 0.156250 0.687500
vt 0.156250 0.187500
vt 0.156250 0.625000
vt 0.156250 0.125000
vt 0.156250 0.562500
vt 0.156250 0.062500
vt 0.156250 0.500000
vt 0.171875 1.000000
vt 0.156250 0.937500
vt 0.171875 0.000000
vt 0.156250 0.437500
vt 0.156250 0.875000
vt 0.156250 0.375000
vt 0.156250 0.812500
vt 0.140625 1.000000
vt 0.125000 0.937500
vt 0.140625 0.000000
vt 0.125000 0.062500
vt 0.125000 0.500000
vt 0.125000 0.437500
vt 0.125000 0.875000
vt 0.125000 0.375000
vt 0.125000 0.812500
vt 0.125000 0.312500
vt 0.125000 0.750000
vt 0.125000 0.250000
vt 0.125000 0.687500
vt 0.125000 0.187500
vt 0.125000 0.625000
vt 0.125000 0.125000
vt 0.125000 0.562500
vt 0.093750 0.750000
vt 0.093750 0.687500
vt 0.093750 0.250000
vt 0.093750 0.187500
vt 0.093750 0.625000
vt 0.093750 0.125000
vt 0.093750 0.562500
vt 0.093750 0.062500
vt 0.093750 0.500000
vt 0.109375 1.000000
vt 0.093750 0.937500
vt 0.109375 0.000000
vt 0.093750 0.437500
vt 0.093750 0.875000
vt 0.093750 0.375000
vt 0.093750 0.812500
vt 0.093750 0.312500
vt 0.062500 0.500000
vt 0.062500 0.437500
vt 0.062500 0.937500
vt 0.062500 0.875000
vt 0.062500 0.375000
vt 0.062500 0.812500
vt 0.062500 0.312500
vt 0.062500 0.750000
vt 0.062500 0.250000
vt 0.062500 0.687500
vt 0.062500 0.187500
vt 0.062500 0.625000
vt 0.062500 0.125000
vt 0.062500 0.562500
vt 0.062500 0.062500
vt 0.078125 1.000000
vt 0.078125 0.000000
vt 0.031250 0.250000
vt 0.031250 0.187500
vt 0.031250 0.687500
vt 0.031250 0.625000
vt 0.031250 0.125000
vt 0.031250 0.562500
vt 0.031250 0.062500
vt 0.031250 0.500000
vt 0.046875 1.000000
vt 0.031250 0.937500
vt 0.046875 0.000000
vt 0.031250 0.437500
vt 0.031250 0.875000
vt 0.031250 0.375000
vt 0.031250 0.812500
vt 0.031250 0.312500
vt 0.031250 0.750000
vt 0.000000 0.437500
vt 0.000000 0.375000
vt 0.000000 0.875000
vt 0.000000 0.812500
vt 0.000000 0.312500
vt 0.000000 0.750000
vt 0.000000 0.250000
vt 0.000000 0.687500
vt 0.000000 0.187500
vt 0.000000 0.625000
vt 0.000000 0.125000
vt 0.000000 0.562500
vt 0.000000 0.062500
vt 0.000000 0.500000
vt 0.015625 1.000000
vt 0.000000 0.937500
vt 0.015625 0.000000
vt 1.000000 0.125000
vt 1.000000 0.187500
vt 0.968750 0.187500
vt 0.968750 0.125000
vt 1.000000 0.562500
vt 1.000000 0.625000
vt 0.968750 0.625000
vt 0.968750 0.562500
vt 1.000000 0.062500
vt 0.968750 0.062500
vt 1.000000 0.500000
vt 0.968750 0.500000
vt 1.000000 0.937500
vt 0.984375 1.000000
vt 0.968750 0.937500
vt 0.984375 0.000000
vt 1.000000 0.437500
vt 0.968750 0.437500
vt 1.000000 0.875000
vt 0.968750 0.875000
vt 1.000000 0.375000
vt 0.968750 0.375000
vt 1.000000 0.812500
vt 0.968750 0.812500
vt 1.000000 0.312500
vt 0.968750 0.312500
vt 1.000000 0.750000
vt 0.968750 0.750000
vt 1.000000 0.250000
vt 0.968750 0.250000
vt 1.000000 0.687500
vt 0.968750 0.687500
vt 0.937500 0.875000
vt 0.937500 0.812500
vt 0.937500 0.375000
vt 0.937500 0.312500
vt 0.937500 0.750000
vt 0.937500 0.250000
vt 0.937500 0.687500
vt 0.937500 0.187500
vt 0.937500 0.625000
vt 0.937500 0.125000
vt 0.937500 0.562500
vt 0.937500 0.062500
vt 0.937500 0.500000
vt 0.953125 1.000000
vt 0.937500 0.937500
vt 0.953125 0.000000
vt 0.937500 0.437500
vt 0.906250 0.625000
vt 0.906250 0.562500
vt 0.906250 0.125000
vt 0.906250 0.062500
vt 0.906250 0.500000
vt 0.921875 1.000000
vt 0.906250 0.937500
vt 0.921875 0.000000
vt 0.906250 0.437500
vt 0.906250 0.875000
vt 0.906250 0.375000
vt 0.906250 0.812500
vt 0.906250 0.312500
vt 0.906250 0.750000
vt 0.906250 0.250000
vt 0.906250 0.687500
vt 0.906250 0.187500
vt 0.875000 0.375000
vt 0.875000 0.312500
vt 0.875000 0.812500
vt 0.875000 0.750000
vt 0.875000 0.250000
vt 0.875000 0.687500
vt 0.875000 0.187500
vt 0.875000 0.625000
vt 0.875000 0.125000
vt 0.875000 0.562500
vt 0.875000 0.062500
vt 0.875000 0.500000
vt 0.890625 1.000000
vt 0.875000 0.937500
vt 0.890625 0.000000
vt 0.875000 0.437500
vt 0.875000 0.875000
vt 0.843750 0.125000
vt 0.843750 0.062500
vt 0.843750 0.562500
vt 0.843750 0.500000
vt 0.859375 1.000000
vt 0.843750 0.937500
vt 0.859375 0.000000
vt 0.843750 0.437500
vt 0.843750 0.875000
vt 0.843750 0.375000
vt 0.843750 0.812500
vt 0.843750 0.312500
vt 0.843750 0.750000
vt 0.843750 0.250000
vt 0.843750 0.687500
vt 0.843750 0.187500
vt 0.843750 0.625000
vt 0.812500 0.812500
vt 0.812500 0.750000
vt 0.812500 0.312500
vt 0.812500 0.250000
vt 0.812500 0.687500
vt 0.812500 0.187500
vt 0.812500 0.625000
vt 0.812500 0.125000
vt 0.812500 0.562500
vt 0.812500 0.062500
vt 0.812500 0.500000
vt 0.828125 1.000000
vt 0.812500 0.937500
vt 0.828125 0.000000
vt 0.812500 0.437500
vt 0.812500 0.875000
vt 0.812500 0.375000
vt 0.781250 0.562500
vt 0.781250 0.500000
vt 0.796875 1.000000
vt 0.781250 0.937500
vt 0.796875 0.000000
vt 0.781250 0.062500
vt 0.781250 0.437500
vt 0.781250 0.875000
vt 0.781250 0.375000
vt 0.781250 0.812500
vt 0.781250 0.312500
vt 0.781250 0.750000
vt 0.781250 0.250000
vt 0.781250 0.687500
vt 0.781250 0.187500
vt 0.781250 0.625000
vt 0.781250 0.125000
vt 0.765625 1.000000
vt 0.765625 0.000000
vn 0.0759 -0.6326 -0.7708
vn 0.0759 0.6326 -0.7708
vn 0.0624 -0.7715 -0.6332
vn 0.0865 0.4696 -0.8786
vn 0.0464 -0.8810 -0.4709
vn 0.0938 0.2890 -0.9527
vn 0.0286 -0.9565 -0.2902
vn 0.0975 0.0975 -0.9904
vn 0.0097 0.9951 -0.0980
vn 0.0097 -0.9951 -0.0980
vn 0.0976 -0.0975 -0.9904
vn 0.0286 0.9565 -0.2902
vn 0.0938 -0.2890 -0.9527
vn 0.0464 0.8810 -0.4709
vn 0.0865 -0.4696 -0.8786
vn 0.0624 0.7715 -0.6332
vn 0.1374 0.8810 -0.4528
vn 0.2563 -0.4696 -0.8448
vn 0.1847 0.7715 -0.6088
vn 0.2248 -0.6326 -0.7412
vn 0.2248 0.6326 -0.7412
vn 0.1847 -0.7715 -0.6088
vn 0.2563 0.4696 -0.8448
vn 0.1374 -0.8810 -0.4528
vn 0.2779 0.2890 -0.9161
vn 0.0846 -0.9565 -0.2790
vn 0.2889 0.0975 -0.9524
vn 0.0286 0.9951 -0.0942
vn 0.0286 -0.9951 -0.0942
vn 0.2889 -0.0975 -0.9524
vn 0.0846 0.9565 -0.2790
vn 0.2779 -0.2890 -0.9161
vn 0.4513 0.2890 -0.8443
vn 0.1374 -0.9565 -0.2571
vn 0.4691 0.0975 -0.8777
vn 0.0464 0.9951 -0.0869
vn 0.0464 -0.9951 -0.0869
vn 0.4691 -0.0975 -0.8777
vn 0.1374 0.9565 -0.2571
vn 0.4513 -0.2890 -0.8443
vn 0.2230 0.8810 -0.4173
vn 0.4162 -0.4696 -0.7786
vn 0.2999 0.7715 -0.5611
vn 0.3651 -0.6326 -0.6831
vn 0.3651 0.6326 -0.6831
vn 0.2999 -0.7715 -0.5611
vn 0.4162 0.4696 -0.7786
vn 0.2230 -0.8810 -0.4173
vn 0.5601 -0.4696 -0.6825
vn 0.4036 0.7715 -0.4918
vn 0.4913 -0.6326 -0.5987
vn 0.4913 0.6326 -0.5987
vn 0.4036 -0.7715 -0.4918
vn 0.5601 0.4696 -0.6825
vn 0.3002 -0.8810 -0.3658
vn 0.6073 0.2890 -0.7400
vn 0.1850 -0.9565 -0.2254
vn 0.6314 0.0976 -0.7693
vn 0.0625 0.9951 -0.0761
vn 0.0625 -0.9951 -0.0761
vn 0.6314 -0.0976 -0.7693
vn 0.1850 0.9565 -0.2254
vn 0.6073 -0.2890 -0.7400
vn 0.3002 0.8810 -0.3658
vn 0.2254 -0.9565 -0.1850
vn 0.7693 0.0975 -0.6314
vn 0.0761 0.9951 -0.0625
vn 0.0761 -0.9951 -0.0625
vn 0.7693 -0.0975 -0.6314
vn 0.2254 0.9565 -0.1850
vn 0.7400 -0.2890 -0.6073
vn 0.3658 0.8810 -0.3002
vn 0.6825 -0.4696 -0.5601
vn 0.4918 0.7715 -0.4036
vn 0.5987 -0.6326 -0.4913
vn 0.5987 0.6326 -0.4913
vn 0.4918 -0.7715 -0.4036
vn 0.6825 0.4696 -0.5601
vn 0.3658 -0.8810 -0.3002
vn 0.7400 0.2890 -0.6073
vn 0.6831 -0.6326 -0.3651
vn 0.6831 0.6326 -0.3651
vn 0.5611 -0.7715 -0.2999
vn 0.7786 0.4696 -0.4162
vn 0.4173 -0.8810 -0.2231
vn 0.8443 0.2890 -0.4513
vn 0.2571 -0.9565 -0.1374
vn 0.8777 0.0976 -0.4691
vn 0.0869 0.9951 -0.0464
vn 0.0869 -0.9951 -0.0464
vn 0.8777 -0.0976 -0.4691
vn 0.2571 0.9565 -0.1374
vn 0.8443 -0.2890 -0.4513
vn 0.4173 0.8810 -0.2231
vn 0.7786 -0.4696 -0.4162
vn 0.5611 0.7715 -0.2999
vn 0.0942 0.9951 -0.0286
vn 0.0942 -0.9951 -0.0286
vn 0.9524 -0.0976 -0.2889
vn 0.2790 0.9565 -0.0846
vn 0.9161 -0.2890 -0.2779
vn 0.4528 0.8810 -0.1374
vn 0.8448 -0.4696 -0.2563
vn 0.6088 0.7715 -0.1847
vn 0.7412 -0.6326 -0.2248
vn 0.7412 0.6326 -0.2248
vn 0.6088 -0.7715 -0.1847
vn 0.8448 0.4696 -0.2563
vn 0.4528 -0.8810 -0.1374
vn 0.9161 0.2890 -0.2779
vn 0.2790 -0.9565 -0.0846
vn 0.9524 0.0976 -0.2889
vn 0.7708 0.6326 -0.0759
vn 0.6332 -0.7715 -0.0624
vn 0.8786 0.4696 -0.0865
vn 0.4709 -0.8810 -0.0464
vn 0.9527 0.2890 -0.0938
vn 0.2902 -0.9565 -0.0286
vn 0.9904 0.0976 -0.0975
vn 0.0980 0.9951 -0.0097
vn 0.0980 -0.9951 -0.0097
vn 0.9904 -0.0976 -0.0975
vn 0.2902 0.9565 -0.0286
vn 0.9527 -0.2890 -0.0938
vn 0.4709 0.8810 -0.0464
vn 0.8786 -0.4696 -0.0865
vn 0.6332 0.7715 -0.0624
vn 0.7708 -0.6326 -0.0759
vn 0.9904 -0.0976 0.0975
vn 0.2902 0.9565 0.0286
vn 0.9527 -0.2890 0.0938
vn 0.4709 0.8810 0.0464
vn 0.8786 -0.4696 0.0865
vn 0.6332 0.7715 0.0624
vn 0.7708 -0.6326 0.0759
vn 0.7708 0.6326 0.0759
vn 0.6332 -0.7715 0.0624
vn 0.8786 0.4696 0.0865
vn 0.4709 -0.8810 0.0464
vn 0.9527 0.2890 0.0938
vn 0.2902 -0.9565 0.0286
vn 0.9904 0.0976 0.0975
vn 0.0980 0.9951 0.0097
vn 0.0980 -0.9951 0.0097
vn 0.6088 -0.7715 0.1847
vn 0.8448 0.4696 0.2563
vn 0.4528 -0.8810 0.1374
vn 0.9161 0.2890 0.2779
vn 0.2790 -0.9565 0.0846
vn 0.9524 0.0976 0.2889
vn 0.0942 0.9951 0.0286
vn 0.0942 -0.9951 0.0286
vn 0.9524 -0.0976 0.2889
vn 0.2790 0.9565 0.0846
vn 0.9161 -0.2890 0.2779
vn 0.4528 0.8810 0.1374
vn 0.8448 -0.4696 0.2563
vn 0.6088 0.7715 0.1847
vn 0.7412 -0.6326 0.2248
vn 0.7412 0.6326 0.2248
vn 0.2571 0.9565 0.1374
vn 0.8443 -0.2890 0.4513
vn 0.4173 0.8810 0.2231
vn 0.7786 -0.4696 0.4162
vn 0.5611 0.7715 0.2999
vn 0.6831 -0.6326 0.3651
vn 0.6831 0.6326 0.3651
vn 0.5611 -0.7715 0.2999
vn 0.7786 0.4696 0.4162
vn 0.4173 -0.8810 0.2231
vn 0.8443 0.2890 0.4513
vn 0.2571 -0.9565 0.1374
vn 0.8777 0.0976 0.4691
vn 0.0869 0.9951 0.0464
vn 0.0869 -0.9951 0.0464
vn 0.8777 -0.0976 0.4691
vn 0.6825 0.4696 0.5601
vn 0.3658 -0.8810 0.3002
vn 0.7400 0.2890 0.6073
vn 0.2254 -0.9565 0.1850
vn 0.7693 0.0976 0.6314
vn 0.0761 0.9951 0.0625
vn 0.0761 -0.9951 0.0625
vn 0.7693 -0.0976 0.6314
vn 0.2254 0.9565 0.1850
vn 0.7400 -0.2890 0.6073
vn 0.3658 0.8810 0.3002
vn 0.6825 -0.4696 0.5601
vn 0.4918 0.7715 0.4036
vn 0.5987 -0.6326 0.4913
vn 0.5987 0.6326 0.4913
vn 0.4918 -0.7715 0.4036
vn 0.6073 -0.2890 0.7400
vn 0.3002 0.8810 0.3658
vn 0.5601 -0.4696 0.6825
vn 0.4036 0.7715 0.4918
vn 0.4913 -0.6326 0.5987
vn 0.4913 0.6326 0.5987
vn 0.4036 -0.7715 0.4918
vn 0.5601 0.4696 0.6825
vn 0.3002 -0.8810 0.3658
vn 0.6073 0.2890 0.7400
vn 0.1850 -0.9565 0.2254
vn 0.6314 0.0976 0.7693
vn 0.0625 0.9951 0.0761
vn 0.0625 -0.9951 0.0761
vn 0.6314 -0.0976 0.7693
vn 0.1850 0.9565 0.2254
vn 0.2230 -0.8810 0.4173
vn 0.4513 0.2890 0.8443
vn 0.1374 -0.9565 0.2571
vn 0.4691 0.0976 0.8777
vn 0.0464 0.9951 0.0869
vn 0.0464 -0.9951 0.0869
vn 0.4691 -0.0976 0.8777
vn 0.1374 0.9565 0.2571
vn 0.4513 -0.2890 0.8443
vn 0.2230 0.8810 0.4173
vn 0.4162 -0.4696 0.7786
vn 0.2999 0.7715 0.5611
vn 0.3651 -0.6326 0.6831
vn 0.3651 0.6326 0.6831
vn 0.2999 -0.7715 0.5611
vn 0.4162 0.4696 0.7786
vn 0.2563 -0.4696 0.8448
vn 0.1847 0.7715 0.6088
vn 0.2248 -0.6326 0.7412
vn 0.2248 0.6326 0.7412
vn 0.1847 -0.7715 0.6088
vn 0.2563 0.4696 0.8448
vn 0.1374 -0.8810 0.4528
vn 0.2779 0.2890 0.9161
vn 0.0846 -0.9565 0.2790
vn 0.2889 0.0976 0.9524
vn 0.0286 0.9951 0.0942
vn 0.0286 -0.9951 0.0942
vn 0.2889 -0.0976 0.9524
vn 0.0846 0.9565 0.2790
vn 0.2779 -0.2890 0.9161
vn 0.1374 0.8810 0.4528
vn 0.0286 -0.9565 0.2902
vn 0.0975 0.0976 0.9904
vn 0.0097 0.9951 0.0980
vn 0.0097 -0.9951 0.0980
vn 0.0975 -0.0976 0.9904
vn 0.0286 0.9565 0.2902
vn 0.0938 -0.2890 0.9527
vn 0.0464 0.8810 0.4709
vn 0.0865 -0.4696 0.8786
vn 0.0624 0.7715 0.6332
vn 0.0759 -0.6326 0.7708
vn 0.0759 0.6326 0.7708
vn 0.0624 -0.7715 0.6332
vn 0.0865 0.4696 0.8786
vn 0.0464 -0.8810 0.4709
vn 0.0938 0.2890 0.9527
vn -0.0624 0.7715 0.6332
vn -0.0759 -0.6326 0.7708
vn -0.0759 0.6326 0.7708
vn -0.0624 -0.7715 0.6332
vn -0.0865 0.4696 0.8786
vn -0.0464 -0.8810 0.4709
vn -0.0938 0.2890 0.9527
vn -0.0286 -0.9565 0.2902
vn -0.0976 0.0976 0.9904
vn -0.0097 0.9951 0.0980
vn -0.0097 -0.9951 0.0980
vn -0.0976 -0.0976 0.9904
vn -0.0286 0.9565 0.2902
vn -0.0938 -0.2890 0.9527
vn -0.0464 0.8810 0.4709
vn -0.0865 -0.4696 0.8786
vn -0.2889 0.0976 0.9524
vn -0.0286 0.9951 0.0942
vn -0.0286 -0.9951 0.0942
vn -0.2889 -0.0976 0.9524
vn -0.0846 0.9565 0.2790
vn -0.2779 -0.2890 0.9161
vn -0.1374 0.8810 0.4528
vn -0.2563 -0.4696 0.8448
vn -0.1847 0.7715 0.6088
vn -0.2248 -0.6326 0.7412
vn -0.2248 0.6326 0.7412
vn -0.1847 -0.7715 0.6088
vn -0.2563 0.4696 0.8448
vn -0.1374 -0.8810 0.4528
vn -0.2779 0.2890 0.9161
vn -0.0846 -0.9565 0.2790
vn -0.3651 -0.6326 0.6831
vn -0.3651 0.6326 0.6831
vn -0.2999 -0.7715 0.5611
vn -0.4162 0.4696 0.7786
vn -0.2230 -0.8810 0.4173
vn -0.4513 0.2890 0.8443
vn -0.1374 -0.9565 0.2571
vn -0.4691 0.0976 0.8777
vn -0.0464 0.9951 0.0869
vn -0.0464 -0.9951 0.0869
vn -0.4691 -0.0976 0.8777
vn -0.1374 0.9565 0.2571
vn -0.4513 -0.2890 0.8443
vn -0.2230 0.8810 0.4173
vn -0.4162 -0.4696 0.7786
vn -0.2999 0.7715 0.5611
vn -0.0625 0.9951 0.0761
vn -0.0625 -0.9951 0.0761
vn -0.6314 -0.0976 0.7693
vn -0.1850 0.9565 0.2254
vn -0.6073 -0.2890 0.7400
vn -0.3002 0.8810 0.3658
vn -0.5601 -0.4696 0.6825
vn -0.4036 0.7715 0.4918
vn -0.4913 -0.6326 0.5987
vn -0.4913 0.6326 0.5987
vn -0.4036 -0.7715 0.4918
vn -0.5601 0.4696 0.6825
vn -0.3002 -0.8810 0.3658
vn -0.6073 0.2890 0.7400
vn -0.1850 -0.9565 0.2254
vn -0.6314 0.0976 0.7693
vn -0.5987 0.6326 0.4913
vn -0.4918 -0.7715 0.4036
vn -0.6825 0.4696 0.5601
vn -0.3658 -0.8810 0.3002
vn -0.7400 0.2890 0.6073
vn -0.2254 -0.9565 0.1850
vn -0.7693 0.0976 0.6314
vn -0.0761 0.9951 0.0625
vn -0.0761 -0.9951 0.0625
vn -0.7693 -0.0976 0.6314
vn -0.2254 0.9565 0.1850
vn -0.7400 -0.2890 0.6073
vn -0.3658 0.8810 0.3002
vn -0.6825 -0.4696 0.5601
vn -0.4918 0.7715 0.4036
vn -0.5987 -0.6326 0.4913
vn -0.8777 -0.0976 0.4691
vn -0.2571 0.9565 0.1374
vn -0.8443 -0.2890 0.4513
vn -0.4173 0.8810 0.2231
vn -0.7786 -0.4696 0.4162
vn -0.5611 0.7715 0.2999
vn -0.6831 -0.6326 0.3651
vn -0.6831 0.6326 0.3651
vn -0.5611 -0.7715 0.2999
vn -0.7786 0.4696 0.4162
vn -0.4173 -0.8810 0.2231
vn -0.8443 0.2890 0.4513
vn -0.2571 -0.9565 0.1374
vn -0.8777 0.0976 0.4691
vn -0.0869 0.9951 0.0464
vn -0.0869 -0.9951 0.0464
vn -0.6088 -0.7715 0.1847
vn -0.8448 0.4696 0.2563
vn -0.4528 -0.8810 0.1374
vn -0.9161 0.2890 0.2779
vn -0.2790 -0.9565 0.0846
vn -0.9524 0.0976 0.2889
vn -0.0942 0.9951 0.0286
vn -0.0942 -0.9951 0.0286
vn -0.9524 -0.0976 0.2889
vn -0.2790 0.9565 0.0846
vn -0.9161 -0.2890 0.2779
vn -0.4528 0.8810 0.1374
vn -0.8448 -0.4696 0.2563
vn -0.6088 0.7715 0.1847
vn -0.7412 -0.6326 0.2248
vn -0.7412 0.6326 0.2248
vn -0.9527 -0.2890 0.0938
vn -0.4709 0.8810 0.0464
vn -0.8786 -0.4696 0.0865
vn -0.6332 0.7715 0.0624
vn -0.7708 -0.6326 0.0759
vn -0.7708 0.6326 0.0759
vn -0.6332 -0.7715 0.0624
vn -0.8786 0.4696 0.0865
vn -0.4709 -0.8810 0.0464
vn -0.9527 0.2890 0.0938
vn -0.2902 -0.9565 0.0286
vn -0.9904 0.0976 0.0975
vn -0.0980 0.9951 0.0097
vn -0.0980 -0.9951 0.0097
vn -0.9904 -0.0976 0.0975
vn -0.2902 0.9565 0.0286
vn -0.4709 -0.8810 -0.0464
vn -0.9527 0.2890 -0.0938
vn -0.2902 -0.9565 -0.0286
vn -0.9904 0.0976 -0.0976
vn -0.0980 0.9951 -0.0097
vn -0.0980 -0.9951 -0.0097
vn -0.9904 -0.0976 -0.0976
vn -0.2902 0.9565 -0.0286
vn -0.9527 -0.2890 -0.0938
vn -0.4709 0.8810 -0.0464
vn -0.8786 -0.4696 -0.0865
vn -0.6332 0.7715 -0.0624
vn -0.7708 -0.6326 -0.0759
vn -0.7708 0.6326 -0.0759
vn -0.6332 -0.7715 -0.0624
vn -0.8786 0.4696 -0.0865
vn -0.4528 0.8810 -0.1374
vn -0.8448 -0.4696 -0.2563
vn -0.6088 0.7715 -0.1847
vn -0.7412 -0.6326 -0.2248
vn -0.7412 0.6326 -0.2248
vn -0.6088 -0.7715 -0.1847
vn -0.8448 0.4696 -0.2563
vn -0.4528 -0.8810 -0.1374
vn -0.9161 0.2890 -0.2779
vn -0.2790 -0.9565 -0.0846
vn -0.9524 0.0976 -0.2889
vn -0.0942 0.9951 -0.0286
vn -0.0942 -0.9951 -0.0286
vn -0.9524 -0.0976 -0.2889
vn -0.2790 0.9565 -0.0846
vn -0.9161 -0.2890 -0.2779
vn -0.8443 0.2890 -0.4513
vn -0.2571 -0.9565 -0.1374
vn -0.8777 0.0976 -0.4691
vn -0.0869 0.9951 -0.0464
vn -0.0869 -0.9951 -0.0464
vn -0.8777 -0.0976 -0.4691
vn -0.2571 0.9565 -0.1374
vn -0.8443 -0.2890 -0.4513
vn -0.4173 0.8810 -0.2231
vn -0.7786 -0.4696 -0.4162
vn -0.5611 0.7715 -0.2999
vn -0.6831 -0.6326 -0.3651
vn -0.6831 0.6326 -0.3651
vn -0.5611 -0.7715 -0.2999
vn -0.7786 0.4696 -0.4162
vn -0.4173 -0.8810 -0.2231
vn -0.6825 -0.4696 -0.5601
vn -0.4918 0.7715 -0.4036
vn -0.5987 -0.6326 -0.4913
vn -0.5987 0.6326 -0.4913
vn -0.4918 -0.7715 -0.4036
vn -0.6825 0.4696 -0.5601
vn -0.3658 -0.8810 -0.3002
vn -0.7400 0.2890 -0.6073
vn -0.2254 -0.9565 -0.1850
vn -0.7693 0.0976 -0.6314
vn -0.0761 0.9951 -0.0625
vn -0.0761 -0.9951 -0.0625
vn -0.7693 -0.0976 -0.6314
vn -0.2254 0.9565 -0.1850
vn -0.7400 -0.2890 -0.6073
vn -0.3658 0.8810 -0.3002
vn -0.1850 -0.9565 -0.2254
vn -0.6314 0.0976 -0.7693
vn -0.0625 0.9951 -0.0761
vn -0.0625 -0.9951 -0.0761
vn -0.6314 -0.0976 -0.7693
vn -0.1850 0.9565 -0.2254
vn -0.6073 -0.2890 -0.7400
vn -0.3002 0.8810 -0.3658
vn -0.5601 -0.4696 -0.6825
vn -0.4036 0.7715 -0.4918
vn -0.4913 -0.6326 -0.5987
vn -0.4913 0.6326 -0.5987
vn -0.4036 -0.7715 -0.4918
vn -0.5601 0.4696 -0.6825
vn -0.3002 -0.8810 -0.3658
vn -0.6073 0.2890 -0.7400
vn -0.2999 0.7715 -0.5611
vn -0.3651 -0.6326 -0.6831
vn -0.3651 0.6326 -0.6831
vn -0.2999 -0.7715 -0.5611
vn -0.4162 0.4696 -0.7786
vn -0.2230 -0.8810 -0.4173
vn -0.4513 0.2890 -0.8443
vn -0.1374 -0.9565 -0.2571
vn -0.4691 0.0976 -0.8777
vn -0.0464 0.9951 -0.0869
vn -0.0464 -0.9951 -0.0869
vn -0.4691 -0.0976 -0.8777
vn -0.1374 0.9565 -0.2571
vn -0.4513 -0.2890 -0.8443
vn -0.2230 0.8810 -0.4173
vn -0.4162 -0.4696 -0.7786
vn -0.2889 0.0976 -0.9524
vn -0.0286 0.9951 -0.0942
vn -0.0286 -0.9951 -0.0942
vn -0.2889 -0.0976 -0.9524
vn -0.0846 0.9565 -0.2790
vn -0.2779 -0.2890 -0.9161
vn -0.1374 0.8810 -0.4528
vn -0.2563 -0.4696 -0.8448
vn -0.1847 0.7715 -0.6088
vn -0.2248 -0.6326 -0.7412
vn -0.2248 0.6326 -0.7412
vn -0.1847 -0.7715 -0.6088
vn -0.2563 0.4696 -0.8448
vn -0.1374 -0.8810 -0.4528
vn -0.2779 0.2890 -0.9161
vn -0.0846 -0.9565 -0.2790
vn -0.0759 -0.6326 -0.7708
vn -0.0759 0.6326 -0.7708
vn -0.0624 -0.7715 -0.6332
vn -0.0865 0.4696 -0.8786
vn -0.0464 -0.8810 -0.4709
vn -0.0938 0.2890 -0.9527
vn -0.0286 -0.9565 -0.2902
vn -0.0976 0.0976 -0.9904
vn -0.0097 0.9951 -0.0980
vn -0.0097 -0.9951 -0.0980
vn -0.0976 -0.0976 -0.9904
vn -0.0286 0.9565 -0.2902
vn -0.0938 -0.2890 -0.9527
vn -0.0464 0.8810 -0.4709
vn -0.0865 -0.4696 -0.8786
vn -0.0624 0.7715 -0.6332
usemtl Material
s off
f 480/1/1 479/2/1 21/3/1 22/4/1
f 5/5/2 4/6/2 14/7/2 15/8/2
f 10/9/3 480/1/3 22/4/3 23/10/3
f 6/11/4 5/5/4 15/8/4 16/12/4
f 481/13/5 10/9/5 23/10/5 24/14/5
f 7/15/6 6/11/6 16/12/6 17/16/6
f 482/17/7 481/13/7 24/14/7 25/18/7
f 8/19/8 7/15/8 17/16/8 18/20/8
f 1/21/9 297/22/9 11/23/9
f 206/24/10 482/17/10 25/18/10
f 9/25/11 8/19/11 18/20/11 19/26/11
f 2/27/12 1/21/12 11/23/12 12/28/12
f 478/29/13 9/25/13 19/26/13 20/30/13
f 3/31/14 2/27/14 12/28/14 13/32/14
f 479/2/15 478/29/15 20/30/15 21/3/15
f 4/6/16 3/31/16 13/32/16 14/7/16
f 13/32/17 12/28/17 27/33/17 28/34/17
f 21/3/18 20/30/18 35/35/18 36/36/18
f 14/7/19 13/32/19 28/34/19 29/37/19
f 22/4/20 21/3/20 36/36/20 37/38/20
f 15/8/21 14/7/21 29/37/21 30/39/21
f 23/10/22 22/4/22 37/38/22 38/40/22
f 16/12/23 15/8/23 30/39/23 31/41/23
f 24/14/24 23/10/24 38/40/24 39/42/24
f 17/16/25 16/12/25 31/41/25 32/43/25
f 25/18/26 24/14/26 39/42/26 40/44/26
f 18/20/27 17/16/27 32/43/27 33/45/27
f 11/23/28 297/46/28 26/47/28
f 206/48/29 25/18/29 40/44/29
f 19/26/30 18/20/30 33/45/30 34/49/30
f 12/28/31 11/23/31 26/47/31 27/33/31
f 20/30/32 19/26/32 34/49/32 35/35/32
f 32/43/33 31/41/33 46/50/33 47/51/33
f 40/44/34 39/42/34 54/52/34 55/53/34
f 33/45/35 32/43/35 47/51/35 48/54/35
f 26/47/36 297/55/36 41/56/36
f 206/57/37 40/44/37 55/53/37
f 34/49/38 33/45/38 48/54/38 49/58/38
f 27/33/39 26/47/39 41/56/39 42/59/39
f 35/35/40 34/49/40 49/58/40 50/60/40
f 28/34/41 27/33/41 42/59/41 43/61/41
f 36/36/42 35/35/42 50/60/42 51/62/42
f 29/37/43 28/34/43 43/61/43 44/63/43
f 37/38/44 36/36/44 51/62/44 52/64/44
f 30/39/45 29/37/45 44/63/45 45/65/45
f 38/40/46 37/38/46 52/64/46 53/66/46
f 31/41/47 30/39/47 45/65/47 46/50/47
f 39/42/48 38/40/48 53/66/48 54/52/48
f 51/62/49 50/60/49 65/67/49 66/68/49
f 44/63/50 43/61/50 58/69/50 59/70/50
f 52/64/51 51/62/51 66/68/51 67/71/51
f 45/65/52 44/63/52 59/70/52 60/72/52
f 53/66/53 52/64/53 67/71/53 68/73/53
f 46/50/54 45/65/54 60/72/54 61/74/54
f 54/52/55 53/66/55 68/73/55 69/75/55
f 47/51/56 46/50/56 61/74/56 62/76/56
f 55/53/57 54/52/57 69/75/57 70/77/57
f 48/54/58 47/51/58 62/76/58 63/78/58
f 41/56/59 297/79/59 56/80/59
f 206/81/60 55/53/60 70/77/60
f 49/58/61 48/54/61 63/78/61 64/82/61
f 42/59/62 41/56/62 56/80/62 57/83/62
f 50/60/63 49/58/63 64/82/63 65/67/63
f 43/61/64 42/59/64 57/83/64 58/69/64
f 70/77/65 69/75/65 84/84/65 85/85/65
f 63/78/66 62/76/66 77/86/66 78/87/66
f 56/80/67 297/88/67 71/89/67
f 206/90/68 70/77/68 85/85/68
f 64/82/69 63/78/69 78/87/69 79/91/69
f 57/83/70 56/80/70 71/89/70 72/92/70
f 65/67/71 64/82/71 79/91/71 80/93/71
f 58/69/72 57/83/72 72/92/72 73/94/72
f 66/68/73 65/67/73 80/93/73 81/95/73
f 59/70/74 58/69/74 73/94/74 74/96/74
f 67/71/75 66/68/75 81/95/75 82/97/75
f 60/72/76 59/70/76 74/96/76 75/98/76
f 68/73/77 67/71/77 82/97/77 83/99/77
f 61/74/78 60/72/78 75/98/78 76/100/78
f 69/75/79 68/73/79 83/99/79 84/84/79
f 62/76/80 61/74/80 76/100/80 77/86/80
f 82/97/81 81/95/81 96/101/81 97/102/81
f 75/98/82 74/96/82 89/103/82 90/104/82
f 83/99/83 82/97/83 97/102/83 98/105/83
f 76/100/84 75/98/84 90/104/84 91/106/84
f 84/84/85 83/99/85 98/105/85 99/107/85
f 77/86/86 76/100/86 91/106/86 92/108/86
f 85/85/87 84/84/87 99/107/87 100/109/87
f 78/87/88 77/86/88 92/108/88 93/110/88
f 71/89/89 297/111/89 86/112/89
f 206/113/90 85/85/90 100/109/90
f 79/91/91 78/87/91 93/110/91 94/114/91
f 72/92/92 71/89/92 86/112/92 87/115/92
f 80/93/93 79/91/93 94/114/93 95/116/93
f 73/94/94 72/92/94 87/115/94 88/117/94
f 81/95/95 80/93/95 95/116/95 96/101/95
f 74/96/96 73/94/96 88/117/96 89/103/96
f 86/112/97 297/118/97 101/119/97
f 206/120/98 100/109/98 115/121/98
f 94/114/99 93/110/99 108/122/99 109/123/99
f 87/115/100 86/112/100 101/119/100 102/124/100
f 95/116/101 94/114/101 109/123/101 110/125/101
f 88/117/102 87/115/102 102/124/102 103/126/102
f 96/101/103 95/116/103 110/125/103 111/127/103
f 89/103/104 88/117/104 103/126/104 104/128/104
f 97/102/105 96/101/105 111/127/105 112/129/105
f 90/104/106 89/103/106 104/128/106 105/130/106
f 98/105/107 97/102/107 112/129/107 113/131/107
f 91/106/108 90/104/108 105/130/108 106/132/108
f 99/107/109 98/105/109 113/131/109 114/133/109
f 92/108/110 91/106/110 106/132/110 107/134/110
f 100/109/111 99/107/111 114/133/111 115/121/111
f 93/110/112 92/108/112 107/134/112 108/122/112
f 105/130/113 104/128/113 119/135/113 120/136/113
f 113/131/114 112/129/114 127/137/114 128/138/114
f 106/132/115 105/130/115 120/136/115 121/139/115
f 114/133/116 113/131/116 128/138/116 129/140/116
f 107/134/117 106/132/117 121/139/117 122/141/117
f 115/121/118 114/133/118 129/140/118 130/142/118
f 108/122/119 107/134/119 122/141/119 123/143/119
f 101/119/120 297/144/120 116/145/120
f 206/146/121 115/121/121 130/142/121
f 109/123/122 108/122/122 123/143/122 124/147/122
f 102/124/123 101/119/123 116/145/123 117/148/123
f 110/125/124 109/123/124 124/147/124 125/149/124
f 103/126/125 102/124/125 117/148/125 118/150/125
f 111/127/126 110/125/126 125/149/126 126/151/126
f 104/128/127 103/126/127 118/150/127 119/135/127
f 112/129/128 111/127/128 126/151/128 127/137/128
f 124/147/129 123/143/129 138/152/129 139/153/129
f 117/148/130 116/145/130 131/154/130 132/155/130
f 125/149/131 124/147/131 139/153/131 140/156/131
f 118/150/132 117/148/132 132/155/132 133/157/132
f 126/151/133 125/149/133 140/156/133 141/158/133
f 119/135/134 118/150/134 133/157/134 134/159/134
f 127/137/135 126/151/135 141/158/135 142/160/135
f 120/136/136 119/135/136 134/159/136 135/161/136
f 128/138/137 127/137/137 142/160/137 143/162/137
f 121/139/138 120/136/138 135/161/138 136/163/138
f 129/140/139 128/138/139 143/162/139 144/164/139
f 122/141/140 121/139/140 136/163/140 137/165/140
f 130/142/141 129/140/141 144/164/141 145/166/141
f 123/143/142 122/141/142 137/165/142 138/152/142
f 116/145/143 297/167/143 131/154/143
f 206/168/144 130/142/144 145/166/144
f 143/162/145 142/160/145 157/169/145 158/170/145
f 136/163/146 135/161/146 150/171/146 151/172/146
f 144/164/147 143/162/147 158/170/147 159/173/147
f 137/165/148 136/163/148 151/172/148 152/174/148
f 145/166/149 144/164/149 159/173/149 160/175/149
f 138/152/150 137/165/150 152/174/150 153/176/150
f 131/154/151 297/177/151 146/178/151
f 206/179/152 145/166/152 160/175/152
f 139/153/153 138/152/153 153/176/153 154/180/153
f 132/155/154 131/154/154 146/178/154 147/181/154
f 140/156/155 139/153/155 154/180/155 155/182/155
f 133/157/156 132/155/156 147/181/156 148/183/156
f 141/158/157 140/156/157 155/182/157 156/184/157
f 134/159/158 133/157/158 148/183/158 149/185/158
f 142/160/159 141/158/159 156/184/159 157/169/159
f 135/161/160 134/159/160 149/185/160 150/171/160
f 147/181/161 146/178/161 161/186/161 162/187/161
f 155/182/162 154/180/162 169/188/162 170/189/162
f 148/183/163 147/181/163 162/187/163 163/190/163
f 156/184/164 155/182/164 170/189/164 171/191/164
f 149/185/165 148/183/165 163/190/165 164/192/165
f 157/169/166 156/184/166 171/191/166 172/193/166
f 150/171/167 149/185/167 164/192/167 165/194/167
f 158/170/168 157/169/168 172/193/168 173/195/168
f 151/172/169 150/171/169 165/194/169 166/196/169
f 159/173/170 158/170/170 173/195/170 174/197/170
f 152/174/171 151/172/171 166/196/171 167/198/171
f 160/175/172 159/173/172 174/197/172 175/199/172
f 153/176/173 152/174/173 167/198/173 168/200/173
f 146/178/174 297/201/174 161/186/174
f 206/202/175 160/175/175 175/199/175
f 154/180/176 153/176/176 168/200/176 169/188/176
f 166/196/177 165/194/177 180/203/177 181/204/177
f 174/197/178 173/195/178 188/205/178 189/206/178
f 167/198/179 166/196/179 181/204/179 182/207/179
f 175/199/180 174/197/180 189/206/180 190/208/180
f 168/200/181 167/198/181 182/207/181 183/209/181
f 161/186/182 297/210/182 176/211/182
f 206/212/183 175/199/183 190/208/183
f 169/188/184 168/200/184 183/209/184 184/213/184
f 162/187/185 161/186/185 176/211/185 177/214/185
f 170/189/186 169/188/186 184/213/186 185/215/186
f 163/190/187 162/187/187 177/214/187 178/216/187
f 171/191/188 170/189/188 185/215/188 186/217/188
f 164/192/189 163/190/189 178/216/189 179/218/189
f 172/193/190 171/191/190 186/217/190 187/219/190
f 165/194/191 164/192/191 179/218/191 180/203/191
f 173/195/192 172/193/192 187/219/192 188/205/192
f 185/215/193 184/213/193 199/220/193 200/221/193
f 178/216/194 177/214/194 192/222/194 193/223/194
f 186/217/195 185/215/195 200/221/195 201/224/195
f 179/218/196 178/216/196 193/223/196 194/225/196
f 187/219/197 186/217/197 201/224/197 202/226/197
f 180/203/198 179/218/198 194/225/198 195/227/198
f 188/205/199 187/219/199 202/226/199 203/228/199
f 181/204/200 180/203/200 195/227/200 196/229/200
f 189/206/201 188/205/201 203/228/201 204/230/201
f 182/207/202 181/204/202 196/229/202 197/231/202
f 190/208/203 189/206/203 204/230/203 205/232/203
f 183/209/204 182/207/204 197/231/204 198/233/204
f 176/211/205 297/234/205 191/235/205
f 206/236/206 190/208/206 205/232/206
f 184/213/207 183/209/207 198/233/207 199/220/207
f 177/214/208 176/211/208 191/235/208 192/222/208
f 204/230/209 203/228/209 219/237/209 220/238/209
f 197/231/210 196/229/210 212/239/210 213/240/210
f 205/232/211 204/230/211 220/238/211 221/241/211
f 198/233/212 197/231/212 213/240/212 214/242/212
f 191/235/213 297/243/213 207/244/213
f 206/245/214 205/232/214 221/241/214
f 199/220/215 198/233/215 214/242/215 215/246/215
f 192/222/216 191/235/216 207/244/216 208/247/216
f 200/221/217 199/220/217 215/246/217 216/248/217
f 193/223/218 192/222/218 208/247/218 209/249/218
f 201/224/219 200/221/219 216/248/219 217/250/219
f 194/225/220 193/223/220 209/249/220 210/251/220
f 202/226/221 201/224/221 217/250/221 218/252/221
f 195/227/222 194/225/222 210/251/222 211/253/222
f 203/228/223 202/226/223 218/252/223 219/237/223
f 196/229/224 195/227/224 211/253/224 212/239/224
f 217/250/225 216/248/225 231/254/225 232/255/225
f 210/251/226 209/249/226 224/256/226 225/257/226
f 218/252/227 217/250/227 232/255/227 233/258/227
f 211/253/228 210/251/228 225/257/228 226/259/228
f 219/237/229 218/252/229 233/258/229 234/260/229
f 212/239/230 211/253/230 226/259/230 227/261/230
f 220/238/231 219/237/231 234/260/231 235/262/231
f 213/240/232 212/239/232 227/261/232 228/263/232
f 221/241/233 220/238/233 235/262/233 236/264/233
f 214/242/234 213/240/234 228/263/234 229/265/234
f 207/244/235 297/266/235 222/267/235
f 206/268/236 221/241/236 236/264/236
f 215/246/237 214/242/237 229/265/237 230/269/237
f 208/247/238 207/244/238 222/267/238 223/270/238
f 216/248/239 215/246/239 230/269/239 231/254/239
f 209/249/240 208/247/240 223/270/240 224/256/240
f 236/264/241 235/262/241 250/271/241 251/272/241
f 229/265/242 228/263/242 243/273/242 244/274/242
f 222/267/243 297/275/243 237/276/243
f 206/277/244 236/264/244 251/272/244
f 230/269/245 229/265/245 244/274/245 245/278/245
f 223/270/246 222/267/246 237/276/246 238/279/246
f 231/254/247 230/269/247 245/278/247 246/280/247
f 224/256/248 223/270/248 238/279/248 239/281/248
f 232/255/249 231/254/249 246/280/249 247/282/249
f 225/257/250 224/256/250 239/281/250 240/283/250
f 233/258/251 232/255/251 247/282/251 248/284/251
f 226/259/252 225/257/252 240/283/252 241/285/252
f 234/260/253 233/258/253 248/284/253 249/286/253
f 227/261/254 226/259/254 241/285/254 242/287/254
f 235/262/255 234/260/255 249/286/255 250/271/255
f 228/263/256 227/261/256 242/287/256 243/273/256
f 240/283/257 239/281/257 254/288/257 255/289/257
f 248/284/258 247/282/258 262/290/258 263/291/258
f 241/285/259 240/283/259 255/289/259 256/292/259
f 249/286/260 248/284/260 263/291/260 264/293/260
f 242/287/261 241/285/261 256/292/261 257/294/261
f 250/271/262 249/286/262 264/293/262 265/295/262
f 243/273/263 242/287/263 257/294/263 258/296/263
f 251/272/264 250/271/264 265/295/264 266/297/264
f 244/274/265 243/273/265 258/296/265 259/298/265
f 237/276/266 297/299/266 252/300/266
f 206/301/267 251/272/267 266/297/267
f 245/278/268 244/274/268 259/298/268 260/302/268
f 238/279/269 237/276/269 252/300/269 253/303/269
f 246/280/270 245/278/270 260/302/270 261/304/270
f 239/281/271 238/279/271 253/303/271 254/288/271
f 247/282/272 246/280/272 261/304/272 262/290/272
f 259/298/273 258/296/273 273/305/273 274/306/273
f 252/300/274 297/307/274 267/308/274
f 206/309/275 266/297/275 281/310/275
f 260/302/276 259/298/276 274/306/276 275/311/276
f 253/303/277 252/300/277 267/308/277 268/312/277
f 261/304/278 260/302/278 275/311/278 276/313/278
f 254/288/279 253/303/279 268/312/279 269/314/279
f 262/290/280 261/304/280 276/313/280 277/315/280
f 255/289/281 254/288/281 269/314/281 270/316/281
f 263/291/282 262/290/282 277/315/282 278/317/282
f 256/292/283 255/289/283 270/316/283 271/318/283
f 264/293/284 263/291/284 278/317/284 279/319/284
f 257/294/285 256/292/285 271/318/285 272/320/285
f 265/295/286 264/293/286 279/319/286 280/321/286
f 258/296/287 257/294/287 272/320/287 273/305/287
f 266/297/288 265/295/288 280/321/288 281/310/288
f 278/317/289 277/315/289 292/322/289 293/323/289
f 271/318/290 270/316/290 285/324/290 286/325/290
f 279/319/291 278/317/291 293/323/291 294/326/291
f 272/320/292 271/318/292 286/325/292 287/327/292
f 280/321/293 279/319/293 294/326/293 295/328/293
f 273/305/294 272/320/294 287/327/294 288/329/294
f 281/310/295 280/321/295 295/328/295 296/330/295
f 274/306/296 273/305/296 288/329/296 289/331/296
f 267/308/297 297/332/297 282/333/297
f 206/334/298 281/310/298 296/330/298
f 275/311/299 274/306/299 289/331/299 290/335/299
f 268/312/300 267/308/300 282/333/300 283/336/300
f 276/313/301 275/311/301 290/335/301 291/337/301
f 269/314/302 268/312/302 283/336/302 284/338/302
f 277/315/303 276/313/303 291/337/303 292/322/303
f 270/316/304 269/314/304 284/338/304 285/324/304
f 282/333/305 297/339/305 298/340/305
f 206/341/306 296/330/306 312/342/306
f 290/335/307 289/331/307 305/343/307 306/344/307
f 283/336/308 282/333/308 298/340/308 299/345/308
f 291/337/309 290/335/309 306/344/309 307/346/309
f 284/338/310 283/336/310 299/345/310 300/347/310
f 292/322/311 291/337/311 307/346/311 308/348/311
f 285/324/312 284/338/312 300/347/312 301/349/312
f 293/323/313 292/322/313 308/348/313 309/350/313
f 286/325/314 285/324/314 301/349/314 302/351/314
f 294/326/315 293/323/315 309/350/315 310/352/315
f 287/327/316 286/325/316 302/351/316 303/353/316
f 295/328/317 294/326/317 310/352/317 311/354/317
f 288/329/318 287/327/318 303/353/318 304/355/318
f 296/330/319 295/328/319 311/354/319 312/342/319
f 289/331/320 288/329/320 304/355/320 305/343/320
f 302/351/321 301/349/321 316/356/321 317/357/321
f 310/352/322 309/350/322 324/358/322 325/359/322
f 303/353/323 302/351/323 317/357/323 318/360/323
f 311/354/324 310/352/324 325/359/324 326/361/324
f 304/355/325 303/353/325 318/360/325 319/362/325
f 312/342/326 311/354/326 326/361/326 327/363/326
f 305/343/327 304/355/327 319/362/327 320/364/327
f 298/340/328 297/365/328 313/366/328
f 206/367/329 312/342/329 327/363/329
f 306/344/330 305/343/330 320/364/330 321/368/330
f 299/345/331 298/340/331 313/366/331 314/369/331
f 307/346/332 306/344/332 321/368/332 322/370/332
f 300/347/333 299/345/333 314/369/333 315/371/333
f 308/348/334 307/346/334 322/370/334 323/372/334
f 301/349/335 300/347/335 315/371/335 316/356/335
f 309/350/336 308/348/336 323/372/336 324/358/336
f 321/368/337 320/364/337 335/373/337 336/374/337
f 314/369/338 313/366/338 328/375/338 329/376/338
f 322/370/339 321/368/339 336/374/339 337/377/339
f 315/371/340 314/369/340 329/376/340 330/378/340
f 323/372/341 322/370/341 337/377/341 338/379/341
f 316/356/342 315/371/342 330/378/342 331/380/342
f 324/358/343 323/372/343 338/379/343 339/381/343
f 317/357/344 316/356/344 331/380/344 332/382/344
f 325/359/345 324/358/345 339/381/345 340/383/345
f 318/360/346 317/357/346 332/382/346 333/384/346
f 326/361/347 325/359/347 340/383/347 341/385/347
f 319/362/348 318/360/348 333/384/348 334/386/348
f 327/363/349 326/361/349 341/385/349 342/387/349
f 320/364/350 319/362/350 334/386/350 335/373/350
f 313/366/351 297/388/351 328/375/351
f 206/389/352 327/363/352 342/387/352
f 340/383/353 339/381/353 354/390/353 355/391/353
f 333/384/354 332/382/354 347/392/354 348/393/354
f 341/385/355 340/383/355 355/391/355 356/394/355
f 334/386/356 333/384/356 348/393/356 349/395/356
f 342/387/357 341/385/357 356/394/357 357/396/357
f 335/373/358 334/386/358 349/395/358 350/397/358
f 328/375/359 297/398/359 343/399/359
f 206/400/360 342/387/360 357/396/360
f 336/374/361 335/373/361 350/397/361 351/401/361
f 329/376/362 328/375/362 343/399/362 344/402/362
f 337/377/363 336/374/363 351/401/363 352/403/363
f 330/378/364 329/376/364 344/402/364 345/404/364
f 338/379/365 337/377/365 352/403/365 353/405/365
f 331/380/366 330/378/366 345/404/366 346/406/366
f 339/381/367 338/379/367 353/405/367 354/390/367
f 332/382/368 331/380/368 346/406/368 347/392/368
f 352/403/369 351/401/369 366/407/369 367/408/369
f 345/404/370 344/402/370 359/409/370 360/410/370
f 353/405/371 352/403/371 367/408/371 368/411/371
f 346/406/372 345/404/372 360/410/372 361/412/372
f 354/390/373 353/405/373 368/411/373 369/413/373
f 347/392/374 346/406/374 361/412/374 362/414/374
f 355/391/375 354/390/375 369/413/375 370/415/375
f 348/393/376 347/392/376 362/414/376 363/416/376
f 356/394/377 355/391/377 370/415/377 371/417/377
f 349/395/378 348/393/378 363/416/378 364/418/378
f 357/396/379 356/394/379 371/417/379 372/419/379
f 350/397/380 349/395/380 364/418/380 365/420/380
f 343/399/381 297/421/381 358/422/381
f 206/423/382 357/396/382 372/419/382
f 351/401/383 350/397/383 365/420/383 366/407/383
f 344/402/384 343/399/384 358/422/384 359/409/384
f 371/424/385 370/425/385 385/426/385 386/427/385
f 364/428/386 363/429/386 378/430/386 379/431/386
f 372/432/387 371/424/387 386/427/387 387/433/387
f 365/434/388 364/428/388 379/431/388 380/435/388
f 358/436/389 297/437/389 373/438/389
f 206/439/390 372/432/390 387/433/390
f 366/440/391 365/434/391 380/435/391 381/441/391
f 359/442/392 358/436/392 373/438/392 374/443/392
f 367/444/393 366/440/393 381/441/393 382/445/393
f 360/446/394 359/442/394 374/443/394 375/447/394
f 368/448/395 367/444/395 382/445/395 383/449/395
f 361/450/396 360/446/396 375/447/396 376/451/396
f 369/452/397 368/448/397 383/449/397 384/453/397
f 362/454/398 361/450/398 376/451/398 377/455/398
f 370/425/399 369/452/399 384/453/399 385/426/399
f 363/429/400 362/454/400 377/455/400 378/430/400
f 375/447/401 374/443/401 389/456/401 390/457/401
f 383/449/402 382/445/402 397/458/402 398/459/402
f 376/451/403 375/447/403 390/457/403 391/460/403
f 384/453/404 383/449/404 398/459/404 399/461/404
f 377/455/405 376/451/405 391/460/405 392/462/405
f 385/426/406 384/453/406 399/461/406 400/463/406
f 378/430/407 377/455/407 392/462/407 393/464/407
f 386/427/408 385/426/408 400/463/408 401/465/408
f 379/431/409 378/430/409 393/464/409 394/466/409
f 387/433/410 386/427/410 401/465/410 402/467/410
f 380/435/411 379/431/411 394/466/411 395/468/411
f 373/438/412 297/469/412 388/470/412
f 206/471/413 387/433/413 402/467/413
f 381/441/414 380/435/414 395/468/414 396/472/414
f 374/443/415 373/438/415 388/470/415 389/456/415
f 382/445/416 381/441/416 396/472/416 397/458/416
f 394/466/417 393/464/417 408/473/417 409/474/417
f 402/467/418 401/465/418 416/475/418 417/476/418
f 395/468/419 394/466/419 409/474/419 410/477/419
f 388/470/420 297/478/420 403/479/420
f 206/480/421 402/467/421 417/476/421
f 396/472/422 395/468/422 410/477/422 411/481/422
f 389/456/423 388/470/423 403/479/423 404/482/423
f 397/458/424 396/472/424 411/481/424 412/483/424
f 390/457/425 389/456/425 404/482/425 405/484/425
f 398/459/426 397/458/426 412/483/426 413/485/426
f 391/460/427 390/457/427 405/484/427 406/486/427
f 399/461/428 398/459/428 413/485/428 414/487/428
f 392/462/429 391/460/429 406/486/429 407/488/429
f 400/463/430 399/461/430 414/487/430 415/489/430
f 393/464/431 392/462/431 407/488/431 408/473/431
f 401/465/432 400/463/432 415/489/432 416/475/432
f 413/485/433 412/483/433 427/490/433 428/491/433
f 406/486/434 405/484/434 420/492/434 421/493/434
f 414/487/435 413/485/435 428/491/435 429/494/435
f 407/488/436 406/486/436 421/493/436 422/495/436
f 415/489/437 414/487/437 429/494/437 430/496/437
f 408/473/438 407/488/438 422/495/438 423/497/438
f 416/475/439 415/489/439 430/496/439 431/498/439
f 409/474/440 408/473/440 423/497/440 424/499/440
f 417/476/441 416/475/441 431/498/441 432/500/441
f 410/477/442 409/474/442 424/499/442 425/501/442
f 403/479/443 297/502/443 418/503/443
f 206/504/444 417/476/444 432/500/444
f 411/481/445 410/477/445 425/501/445 426/505/445
f 404/482/446 403/479/446 418/503/446 419/506/446
f 412/483/447 411/481/447 426/505/447 427/490/447
f 405/484/448 404/482/448 419/506/448 420/492/448
f 432/500/449 431/498/449 446/507/449 447/508/449
f 425/501/450 424/499/450 439/509/450 440/510/450
f 418/503/451 297/511/451 433/512/451
f 206/513/452 432/500/452 447/508/452
f 426/505/453 425/501/453 440/510/453 441/514/453
f 419/506/454 418/503/454 433/512/454 434/515/454
f 427/490/455 426/505/455 441/514/455 442/516/455
f 420/492/456 419/506/456 434/515/456 435/517/456
f 428/491/457 427/490/457 442/516/457 443/518/457
f 421/493/458 420/492/458 435/517/458 436/519/458
f 429/494/459 428/491/459 443/518/459 444/520/459
f 422/495/460 421/493/460 436/519/460 437/521/460
f 430/496/461 429/494/461 444/520/461 445/522/461
f 423/497/462 422/495/462 437/521/462 438/523/462
f 431/498/463 430/496/463 445/522/463 446/507/463
f 424/499/464 423/497/464 438/523/464 439/509/464
f 436/519/465 435/517/465 450/524/465 451/525/465
f 444/520/466 443/518/466 458/526/466 459/527/466
f 437/521/467 436/519/467 451/525/467 452/528/467
f 445/522/468 444/520/468 459/527/468 460/529/468
f 438/523/469 437/521/469 452/528/469 453/530/469
f 446/507/470 445/522/470 460/529/470 461/531/470
f 439/509/471 438/523/471 453/530/471 454/532/471
f 447/508/472 446/507/472 461/531/472 462/533/472
f 440/510/473 439/509/473 454/532/473 455/534/473
f 433/512/474 297/535/474 448/536/474
f 206/537/475 447/508/475 462/533/475
f 441/514/476 440/510/476 455/534/476 456/538/476
f 434/515/477 433/512/477 448/536/477 449/539/477
f 442/516/478 441/514/478 456/538/478 457/540/478
f 435/517/479 434/515/479 449/539/479 450/524/479
f 443/518/480 442/516/480 457/540/480 458/526/480
f 455/534/481 454/532/481 469/541/481 470/542/481
f 448/536/482 297/543/482 463/544/482
f 206/545/483 462/533/483 477/546/483
f 456/538/484 455/534/484 470/542/484 471/547/484
f 449/539/485 448/536/485 463/544/485 464/548/485
f 457/540/486 456/538/486 471/547/486 472/549/486
f 450/524/487 449/539/487 464/548/487 465/550/487
f 458/526/488 457/540/488 472/549/488 473/551/488
f 451/525/489 450/524/489 465/550/489 466/552/489
f 459/527/490 458/526/490 473/551/490 474/553/490
f 452/528/491 451/525/491 466/552/491 467/554/491
f 460/529/492 459/527/492 474/553/492 475/555/492
f 453/530/493 452/528/493 467/554/493 468/556/493
f 461/531/494 460/529/494 475/555/494 476/557/494
f 454/532/495 453/530/495 468/556/495 469/541/495
f 462/533/496 461/531/496 476/557/496 477/546/496
f 474/553/497 473/551/497 479/2/497 480/1/497
f 467/554/498 466/552/498 4/6/498 5/5/498
f 475/555/499 474/553/499 480/1/499 10/9/499
f 468/556/500 467/554/500 5/5/500 6/11/500
f 476/557/501 475/555/501 10/9/501 481/13/501
f 469/541/502 468/556/502 6/11/502 7/15/502
f 477/546/503 476/557/503 481/13/503 482/17/503
f 470/542/504 469/541/504 7/15/504 8/19/504
f 463/544/505 297/558/505 1/21/505
f 206/559/506 477/546/506 482/17/506
f 471/547/507 470/542/507 8/19/507 9/25/507
f 464/548/508 463/544/508 1/21/508 2/27/508
f 472/549/509 471/547/509 9/25/509 478/29/509
f 465/550/510 464/548/510 2/27/510 3/31/510
f 473/551/511 472/549/511 478/29/511 479/2/511
f 466/552/512 465/550/512 3/31/512 4/6/512
