# Blender MTL File: 'bombard.blend'
# Material Count: 1

newmtl Material
Ns 323.999994
Ka 1.000000 1.000000 1.000000
Kd 0.800000 0.800000 0.800000
Ks 0.100000 0.100000 0.100000
Ke 0.000000 0.000000 0.000000
Ni 1.450000
d 1.000000
illum 2
map_Bump Sphere_main_Normal.png
map_Kd Sphere_main_BaseMap.png
map_Ks Sphere_main_MaskMap.png
